{
  "runtimeTarget": {
    "name": ".NETCoreApp,Version=v7.0",
    "signature": ""
  },
  "compilationOptions": {},
  "targets": {
    ".NETCoreApp,Version=v7.0": {
      "LowMemoryDetection/1.0.0": {
        "dependencies": {
          "Microsoft.Graph": "5.27.0",
          "Microsoft.Graph.Auth": "1.0.0-preview.7",
          "Microsoft.Identity.Client": "4.56.0",
          "Microsoft.SqlServer.SqlManagementObjects": "170.18.0",
          "Newtonsoft.Json": "13.0.3",
          "System.Data.SqlClient": "4.8.5"
        },
        "runtime": {
          "LowMemoryDetection.dll": {}
        }
      },
      "Azure.Core/1.33.0": {
        "dependencies": {
          "Microsoft.Bcl.AsyncInterfaces": "1.1.1",
          "System.Diagnostics.DiagnosticSource": "6.0.0",
          "System.Memory.Data": "1.0.2",
          "System.Numerics.Vectors": "4.5.0",
          "System.Text.Encodings.Web": "6.0.0",
          "System.Text.Json": "6.0.0",
          "System.Threading.Tasks.Extensions": "4.5.4"
        },
        "runtime": {
          "lib/net6.0/Azure.Core.dll": {
            "assemblyVersion": "1.33.0.0",
            "fileVersion": "1.3300.23.31609"
          }
        }
      },
      "Azure.Identity/1.7.0": {
        "dependencies": {
          "Azure.Core": "1.33.0",
          "Microsoft.Identity.Client": "4.56.0",
          "Microsoft.Identity.Client.Extensions.Msal": "2.19.3",
          "System.Memory": "4.5.4",
          "System.Security.Cryptography.ProtectedData": "6.0.0",
          "System.Text.Json": "6.0.0",
          "System.Threading.Tasks.Extensions": "4.5.4"
        },
        "runtime": {
          "lib/netstandard2.0/Azure.Identity.dll": {
            "assemblyVersion": "1.7.0.0",
            "fileVersion": "1.700.22.46903"
          }
        }
      },
      "Microsoft.Bcl.AsyncInterfaces/1.1.1": {
        "runtime": {
          "lib/netstandard2.1/Microsoft.Bcl.AsyncInterfaces.dll": {
            "assemblyVersion": "1.0.0.0",
            "fileVersion": "4.700.20.21406"
          }
        }
      },
      "Microsoft.CSharp/4.5.0": {},
      "Microsoft.Data.SqlClient/5.1.1": {
        "dependencies": {
          "Azure.Identity": "1.7.0",
          "Microsoft.Data.SqlClient.SNI.runtime": "5.1.0",
          "Microsoft.Identity.Client": "4.56.0",
          "Microsoft.IdentityModel.JsonWebTokens": "6.32.2",
          "Microsoft.IdentityModel.Protocols.OpenIdConnect": "6.32.2",
          "Microsoft.SqlServer.Server": "1.0.0",
          "System.Configuration.ConfigurationManager": "6.0.1",
          "System.Diagnostics.DiagnosticSource": "6.0.0",
          "System.Runtime.Caching": "6.0.0",
          "System.Security.Cryptography.Cng": "5.0.0",
          "System.Security.Principal.Windows": "5.0.0",
          "System.Text.Encoding.CodePages": "6.0.0",
          "System.Text.Encodings.Web": "6.0.0"
        },
        "runtime": {
          "lib/net6.0/Microsoft.Data.SqlClient.dll": {
            "assemblyVersion": "5.0.0.0",
            "fileVersion": "5.0.0.0"
          }
        },
        "runtimeTargets": {
          "runtimes/unix/lib/net6.0/Microsoft.Data.SqlClient.dll": {
            "rid": "unix",
            "assetType": "runtime",
            "assemblyVersion": "5.0.0.0",
            "fileVersion": "5.0.0.0"
          },
          "runtimes/win/lib/net6.0/Microsoft.Data.SqlClient.dll": {
            "rid": "win",
            "assetType": "runtime",
            "assemblyVersion": "5.0.0.0",
            "fileVersion": "5.0.0.0"
          }
        }
      },
      "Microsoft.Data.SqlClient.SNI.runtime/5.1.0": {
        "runtimeTargets": {
          "runtimes/win-arm/native/Microsoft.Data.SqlClient.SNI.dll": {
            "rid": "win-arm",
            "assetType": "native",
            "fileVersion": "5.1.0.0"
          },
          "runtimes/win-arm64/native/Microsoft.Data.SqlClient.SNI.dll": {
            "rid": "win-arm64",
            "assetType": "native",
            "fileVersion": "5.1.0.0"
          },
          "runtimes/win-x64/native/Microsoft.Data.SqlClient.SNI.dll": {
            "rid": "win-x64",
            "assetType": "native",
            "fileVersion": "5.1.0.0"
          },
          "runtimes/win-x86/native/Microsoft.Data.SqlClient.SNI.dll": {
            "rid": "win-x86",
            "assetType": "native",
            "fileVersion": "5.1.0.0"
          }
        }
      },
      "Microsoft.Graph/5.27.0": {
        "dependencies": {
          "Microsoft.Graph.Core": "3.0.11"
        },
        "runtime": {
          "lib/netstandard2.1/Microsoft.Graph.dll": {
            "assemblyVersion": "5.27.0.0",
            "fileVersion": "5.27.0.0"
          }
        }
      },
      "Microsoft.Graph.Auth/1.0.0-preview.7": {
        "dependencies": {
          "Microsoft.Graph.Core": "3.0.11",
          "Microsoft.Identity.Client": "4.56.0",
          "NETStandard.Library": "2.0.3",
          "System.Security.Claims": "4.3.0",
          "System.Security.Principal": "4.3.0"
        },
        "runtime": {
          "lib/netstandard1.3/Microsoft.Graph.Auth.dll": {
            "assemblyVersion": "1.0.0.0",
            "fileVersion": "1.0.0.0"
          }
        }
      },
      "Microsoft.Graph.Core/3.0.11": {
        "dependencies": {
          "Microsoft.IdentityModel.Protocols.OpenIdConnect": "6.32.2",
          "Microsoft.Kiota.Abstractions": "1.3.1",
          "Microsoft.Kiota.Authentication.Azure": "1.0.3",
          "Microsoft.Kiota.Http.HttpClientLibrary": "1.1.1",
          "Microsoft.Kiota.Serialization.Form": "1.0.1",
          "Microsoft.Kiota.Serialization.Json": "1.0.8",
          "Microsoft.Kiota.Serialization.Multipart": "1.0.0",
          "Microsoft.Kiota.Serialization.Text": "1.0.3",
          "NETStandard.Library": "2.0.3",
          "System.Security.Claims": "4.3.0"
        },
        "runtime": {
          "lib/net6.0-windows7.0/Microsoft.Graph.Core.dll": {
            "assemblyVersion": "3.0.11.0",
            "fileVersion": "3.0.11.0"
          }
        }
      },
      "Microsoft.Identity.Client/4.56.0": {
        "dependencies": {
          "Microsoft.Identity.Client.NativeInterop": "0.13.8",
          "Microsoft.IdentityModel.Abstractions": "6.32.2",
          "Microsoft.Web.WebView2": "1.0.864.35"
        },
        "runtime": {
          "lib/net6.0-windows7.0/Microsoft.Identity.Client.dll": {
            "assemblyVersion": "4.56.0.0",
            "fileVersion": "4.56.0.0"
          }
        }
      },
      "Microsoft.Identity.Client.Extensions.Msal/2.19.3": {
        "dependencies": {
          "Microsoft.Identity.Client": "4.56.0",
          "System.Security.Cryptography.ProtectedData": "6.0.0"
        },
        "runtime": {
          "lib/netcoreapp2.1/Microsoft.Identity.Client.Extensions.Msal.dll": {
            "assemblyVersion": "2.19.3.0",
            "fileVersion": "2.19.3.0"
          }
        }
      },
      "Microsoft.Identity.Client.NativeInterop/0.13.8": {
        "runtime": {
          "lib/netstandard2.0/Microsoft.Identity.Client.NativeInterop.dll": {
            "assemblyVersion": "0.13.8.0",
            "fileVersion": "0.13.8.0"
          }
        },
        "runtimeTargets": {
          "runtimes/win-arm64/native/msalruntime_arm64.dll": {
            "rid": "win-arm64",
            "assetType": "native",
            "fileVersion": "0.0.0.0"
          },
          "runtimes/win-x64/native/msalruntime.dll": {
            "rid": "win-x64",
            "assetType": "native",
            "fileVersion": "0.0.0.0"
          },
          "runtimes/win-x86/native/msalruntime_x86.dll": {
            "rid": "win-x86",
            "assetType": "native",
            "fileVersion": "0.0.0.0"
          }
        }
      },
      "Microsoft.IdentityModel.Abstractions/6.32.2": {
        "runtime": {
          "lib/net6.0/Microsoft.IdentityModel.Abstractions.dll": {
            "assemblyVersion": "6.32.2.0",
            "fileVersion": "6.32.2.40825"
          }
        }
      },
      "Microsoft.IdentityModel.JsonWebTokens/6.32.2": {
        "dependencies": {
          "Microsoft.IdentityModel.Tokens": "6.32.2",
          "System.Text.Encoding": "4.3.0",
          "System.Text.Encodings.Web": "6.0.0",
          "System.Text.Json": "6.0.0"
        },
        "runtime": {
          "lib/net6.0/Microsoft.IdentityModel.JsonWebTokens.dll": {
            "assemblyVersion": "6.32.2.0",
            "fileVersion": "6.32.2.40825"
          }
        }
      },
      "Microsoft.IdentityModel.Logging/6.32.2": {
        "dependencies": {
          "Microsoft.IdentityModel.Abstractions": "6.32.2"
        },
        "runtime": {
          "lib/net6.0/Microsoft.IdentityModel.Logging.dll": {
            "assemblyVersion": "6.32.2.0",
            "fileVersion": "6.32.2.40825"
          }
        }
      },
      "Microsoft.IdentityModel.Protocols/6.32.2": {
        "dependencies": {
          "Microsoft.IdentityModel.Logging": "6.32.2",
          "Microsoft.IdentityModel.Tokens": "6.32.2"
        },
        "runtime": {
          "lib/net6.0/Microsoft.IdentityModel.Protocols.dll": {
            "assemblyVersion": "6.32.2.0",
            "fileVersion": "6.32.2.40825"
          }
        }
      },
      "Microsoft.IdentityModel.Protocols.OpenIdConnect/6.32.2": {
        "dependencies": {
          "Microsoft.IdentityModel.Protocols": "6.32.2",
          "System.IdentityModel.Tokens.Jwt": "6.32.2"
        },
        "runtime": {
          "lib/net6.0/Microsoft.IdentityModel.Protocols.OpenIdConnect.dll": {
            "assemblyVersion": "6.32.2.0",
            "fileVersion": "6.32.2.40825"
          }
        }
      },
      "Microsoft.IdentityModel.Tokens/6.32.2": {
        "dependencies": {
          "Microsoft.CSharp": "4.5.0",
          "Microsoft.IdentityModel.Logging": "6.32.2",
          "System.Security.Cryptography.Cng": "5.0.0"
        },
        "runtime": {
          "lib/net6.0/Microsoft.IdentityModel.Tokens.dll": {
            "assemblyVersion": "6.32.2.0",
            "fileVersion": "6.32.2.40825"
          }
        }
      },
      "Microsoft.Kiota.Abstractions/1.3.1": {
        "dependencies": {
          "System.Diagnostics.DiagnosticSource": "6.0.0",
          "Tavis.UriTemplates": "2.0.0"
        },
        "runtime": {
          "lib/netstandard2.1/Microsoft.Kiota.Abstractions.dll": {
            "assemblyVersion": "1.3.1.0",
            "fileVersion": "1.3.1.0"
          }
        }
      },
      "Microsoft.Kiota.Authentication.Azure/1.0.3": {
        "dependencies": {
          "Azure.Core": "1.33.0",
          "Microsoft.Kiota.Abstractions": "1.3.1",
          "System.Diagnostics.DiagnosticSource": "6.0.0"
        },
        "runtime": {
          "lib/netstandard2.1/Microsoft.Kiota.Authentication.Azure.dll": {
            "assemblyVersion": "1.0.3.0",
            "fileVersion": "1.0.3.0"
          }
        }
      },
      "Microsoft.Kiota.Http.HttpClientLibrary/1.1.1": {
        "dependencies": {
          "Microsoft.Kiota.Abstractions": "1.3.1",
          "System.Diagnostics.DiagnosticSource": "6.0.0",
          "System.Text.Json": "6.0.0"
        },
        "runtime": {
          "lib/netstandard2.1/Microsoft.Kiota.Http.HttpClientLibrary.dll": {
            "assemblyVersion": "1.1.1.0",
            "fileVersion": "1.1.1.0"
          }
        }
      },
      "Microsoft.Kiota.Serialization.Form/1.0.1": {
        "dependencies": {
          "Microsoft.Kiota.Abstractions": "1.3.1"
        },
        "runtime": {
          "lib/netstandard2.1/Microsoft.Kiota.Serialization.Form.dll": {
            "assemblyVersion": "1.0.1.0",
            "fileVersion": "1.0.1.0"
          }
        }
      },
      "Microsoft.Kiota.Serialization.Json/1.0.8": {
        "dependencies": {
          "Microsoft.Kiota.Abstractions": "1.3.1",
          "System.Text.Json": "6.0.0"
        },
        "runtime": {
          "lib/netstandard2.1/Microsoft.Kiota.Serialization.Json.dll": {
            "assemblyVersion": "1.0.8.0",
            "fileVersion": "1.0.8.0"
          }
        }
      },
      "Microsoft.Kiota.Serialization.Multipart/1.0.0": {
        "dependencies": {
          "Microsoft.Kiota.Abstractions": "1.3.1"
        },
        "runtime": {
          "lib/netstandard2.1/Microsoft.Kiota.Serialization.Multipart.dll": {
            "assemblyVersion": "1.0.0.0",
            "fileVersion": "1.0.0.0"
          }
        }
      },
      "Microsoft.Kiota.Serialization.Text/1.0.3": {
        "dependencies": {
          "Microsoft.Kiota.Abstractions": "1.3.1"
        },
        "runtime": {
          "lib/netstandard2.1/Microsoft.Kiota.Serialization.Text.dll": {
            "assemblyVersion": "1.0.3.0",
            "fileVersion": "1.0.3.0"
          }
        }
      },
      "Microsoft.NETCore.Platforms/1.1.0": {},
      "Microsoft.NETCore.Targets/1.1.0": {},
      "Microsoft.SqlServer.Assessment/1.1.9": {
        "dependencies": {
          "Microsoft.SqlServer.Assessment.Authoring": "1.1.0",
          "Newtonsoft.Json": "13.0.3"
        },
        "runtime": {
          "lib/netstandard2.0/Microsoft.SqlServer.Assessment.dll": {
            "assemblyVersion": "1.100.0.0",
            "fileVersion": "1.1.13.0"
          }
        }
      },
      "Microsoft.SqlServer.Assessment.Authoring/1.1.0": {
        "runtime": {
          "lib/netstandard2.0/Microsoft.SqlServer.Assessment.Types.dll": {
            "assemblyVersion": "1.0.0.0",
            "fileVersion": "1.0.0.0"
          }
        }
      },
      "Microsoft.SqlServer.Server/1.0.0": {
        "runtime": {
          "lib/netstandard2.0/Microsoft.SqlServer.Server.dll": {
            "assemblyVersion": "1.0.0.0",
            "fileVersion": "1.0.0.0"
          }
        }
      },
      "Microsoft.SqlServer.SqlManagementObjects/170.18.0": {
        "dependencies": {
          "Azure.Core": "1.33.0",
          "Azure.Identity": "1.7.0",
          "Microsoft.Data.SqlClient": "5.1.1",
          "Microsoft.Identity.Client": "4.56.0",
          "Microsoft.SqlServer.Assessment": "1.1.9",
          "Newtonsoft.Json": "13.0.3",
          "System.Buffers": "4.5.1",
          "System.Data.OleDb": "6.0.0",
          "System.Diagnostics.DiagnosticSource": "6.0.0",
          "System.Management": "6.0.0",
          "System.Memory": "4.5.4",
          "System.Runtime.CompilerServices.Unsafe": "6.0.0",
          "System.Security.Cryptography.ProtectedData": "6.0.0",
          "System.Security.Permissions": "6.0.0",
          "System.Security.Principal.Windows": "5.0.0",
          "System.ValueTuple": "4.5.0"
        },
        "runtime": {
          "lib/net6.0/Microsoft.Data.Tools.Sql.BatchParser.dll": {
            "assemblyVersion": "17.100.0.0",
            "fileVersion": "17.100.18.0"
          },
          "lib/net6.0/Microsoft.SqlServer.ConnectionInfo.dll": {
            "assemblyVersion": "17.100.0.0",
            "fileVersion": "17.100.18.0"
          },
          "lib/net6.0/Microsoft.SqlServer.Dmf.Common.dll": {
            "assemblyVersion": "17.100.0.0",
            "fileVersion": "17.100.18.0"
          },
          "lib/net6.0/Microsoft.SqlServer.Dmf.dll": {
            "assemblyVersion": "17.100.0.0",
            "fileVersion": "17.100.18.0"
          },
          "lib/net6.0/Microsoft.SqlServer.Management.Assessment.dll": {
            "assemblyVersion": "17.100.0.0",
            "fileVersion": "17.100.18.0"
          },
          "lib/net6.0/Microsoft.SqlServer.Management.Collector.dll": {
            "assemblyVersion": "17.100.0.0",
            "fileVersion": "17.100.18.0"
          },
          "lib/net6.0/Microsoft.SqlServer.Management.CollectorEnum.dll": {
            "assemblyVersion": "17.100.0.0",
            "fileVersion": "17.100.18.0"
          },
          "lib/net6.0/Microsoft.SqlServer.Management.HadrData.dll": {
            "assemblyVersion": "17.100.0.0",
            "fileVersion": "17.100.18.0"
          },
          "lib/net6.0/Microsoft.SqlServer.Management.HadrModel.dll": {
            "assemblyVersion": "17.100.0.0",
            "fileVersion": "17.100.18.0"
          },
          "lib/net6.0/Microsoft.SqlServer.Management.RegisteredServers.dll": {
            "assemblyVersion": "17.100.0.0",
            "fileVersion": "17.100.18.0"
          },
          "lib/net6.0/Microsoft.SqlServer.Management.Sdk.Sfc.dll": {
            "assemblyVersion": "17.100.0.0",
            "fileVersion": "17.100.18.0"
          },
          "lib/net6.0/Microsoft.SqlServer.Management.SqlScriptPublish.dll": {
            "assemblyVersion": "17.100.0.0",
            "fileVersion": "17.100.18.0"
          },
          "lib/net6.0/Microsoft.SqlServer.Management.XEvent.dll": {
            "assemblyVersion": "17.100.0.0",
            "fileVersion": "17.100.18.0"
          },
          "lib/net6.0/Microsoft.SqlServer.Management.XEventDbScoped.dll": {
            "assemblyVersion": "17.100.0.0",
            "fileVersion": "17.100.18.0"
          },
          "lib/net6.0/Microsoft.SqlServer.Management.XEventDbScopedEnum.dll": {
            "assemblyVersion": "17.100.0.0",
            "fileVersion": "17.100.18.0"
          },
          "lib/net6.0/Microsoft.SqlServer.Management.XEventEnum.dll": {
            "assemblyVersion": "17.100.0.0",
            "fileVersion": "17.100.18.0"
          },
          "lib/net6.0/Microsoft.SqlServer.PolicyEnum.dll": {
            "assemblyVersion": "17.100.0.0",
            "fileVersion": "17.100.18.0"
          },
          "lib/net6.0/Microsoft.SqlServer.ServiceBrokerEnum.dll": {
            "assemblyVersion": "17.100.0.0",
            "fileVersion": "17.100.18.0"
          },
          "lib/net6.0/Microsoft.SqlServer.Smo.Notebook.dll": {
            "assemblyVersion": "17.100.0.0",
            "fileVersion": "17.100.18.0"
          },
          "lib/net6.0/Microsoft.SqlServer.Smo.dll": {
            "assemblyVersion": "17.100.0.0",
            "fileVersion": "17.100.18.0"
          },
          "lib/net6.0/Microsoft.SqlServer.SmoExtended.dll": {
            "assemblyVersion": "17.100.0.0",
            "fileVersion": "17.100.18.0"
          },
          "lib/net6.0/Microsoft.SqlServer.SqlEnum.dll": {
            "assemblyVersion": "17.100.0.0",
            "fileVersion": "17.100.18.0"
          },
          "lib/net6.0/Microsoft.SqlServer.SqlWmiManagement.dll": {
            "assemblyVersion": "17.100.0.0",
            "fileVersion": "17.100.18.0"
          },
          "lib/net6.0/Microsoft.SqlServer.WmiEnum.dll": {
            "assemblyVersion": "17.100.0.0",
            "fileVersion": "17.100.18.0"
          }
        }
      },
      "Microsoft.Web.WebView2/1.0.864.35": {
        "runtime": {
          "lib/netcoreapp3.0/Microsoft.Web.WebView2.Core.dll": {
            "assemblyVersion": "1.0.864.35",
            "fileVersion": "1.0.864.35"
          },
          "lib/netcoreapp3.0/Microsoft.Web.WebView2.WinForms.dll": {
            "assemblyVersion": "1.0.864.35",
            "fileVersion": "1.0.864.35"
          },
          "lib/netcoreapp3.0/Microsoft.Web.WebView2.Wpf.dll": {
            "assemblyVersion": "1.0.864.35",
            "fileVersion": "1.0.864.35"
          }
        },
        "runtimeTargets": {
          "runtimes/win-arm64/native/WebView2Loader.dll": {
            "rid": "win-arm64",
            "assetType": "native",
            "fileVersion": "1.0.864.35"
          },
          "runtimes/win-x64/native/WebView2Loader.dll": {
            "rid": "win-x64",
            "assetType": "native",
            "fileVersion": "1.0.864.35"
          },
          "runtimes/win-x86/native/WebView2Loader.dll": {
            "rid": "win-x86",
            "assetType": "native",
            "fileVersion": "1.0.864.35"
          }
        }
      },
      "Microsoft.Win32.Registry/4.7.0": {
        "dependencies": {
          "System.Security.AccessControl": "6.0.0",
          "System.Security.Principal.Windows": "5.0.0"
        }
      },
      "Microsoft.Win32.SystemEvents/6.0.0": {},
      "NETStandard.Library/2.0.3": {
        "dependencies": {
          "Microsoft.NETCore.Platforms": "1.1.0"
        }
      },
      "Newtonsoft.Json/13.0.3": {
        "runtime": {
          "lib/net6.0/Newtonsoft.Json.dll": {
            "assemblyVersion": "13.0.0.0",
            "fileVersion": "13.0.3.27908"
          }
        }
      },
      "runtime.native.System.Data.SqlClient.sni/4.7.0": {
        "dependencies": {
          "runtime.win-arm64.runtime.native.System.Data.SqlClient.sni": "4.4.0",
          "runtime.win-x64.runtime.native.System.Data.SqlClient.sni": "4.4.0",
          "runtime.win-x86.runtime.native.System.Data.SqlClient.sni": "4.4.0"
        }
      },
      "runtime.win-arm64.runtime.native.System.Data.SqlClient.sni/4.4.0": {
        "runtimeTargets": {
          "runtimes/win-arm64/native/sni.dll": {
            "rid": "win-arm64",
            "assetType": "native",
            "fileVersion": "4.6.25512.1"
          }
        }
      },
      "runtime.win-x64.runtime.native.System.Data.SqlClient.sni/4.4.0": {
        "runtimeTargets": {
          "runtimes/win-x64/native/sni.dll": {
            "rid": "win-x64",
            "assetType": "native",
            "fileVersion": "4.6.25512.1"
          }
        }
      },
      "runtime.win-x86.runtime.native.System.Data.SqlClient.sni/4.4.0": {
        "runtimeTargets": {
          "runtimes/win-x86/native/sni.dll": {
            "rid": "win-x86",
            "assetType": "native",
            "fileVersion": "4.6.25512.1"
          }
        }
      },
      "System.Buffers/4.5.1": {},
      "System.CodeDom/6.0.0": {},
      "System.Collections/4.3.0": {
        "dependencies": {
          "Microsoft.NETCore.Platforms": "1.1.0",
          "Microsoft.NETCore.Targets": "1.1.0",
          "System.Runtime": "4.3.0"
        }
      },
      "System.Configuration.ConfigurationManager/6.0.1": {
        "dependencies": {
          "System.Security.Cryptography.ProtectedData": "6.0.0",
          "System.Security.Permissions": "6.0.0"
        }
      },
      "System.Data.OleDb/6.0.0": {
        "dependencies": {
          "System.Configuration.ConfigurationManager": "6.0.1",
          "System.Diagnostics.PerformanceCounter": "6.0.0"
        },
        "runtime": {
          "lib/net6.0/System.Data.OleDb.dll": {
            "assemblyVersion": "6.0.0.0",
            "fileVersion": "6.0.21.52210"
          }
        },
        "runtimeTargets": {
          "runtimes/win/lib/net6.0/System.Data.OleDb.dll": {
            "rid": "win",
            "assetType": "runtime",
            "assemblyVersion": "6.0.0.0",
            "fileVersion": "6.0.21.52210"
          }
        }
      },
      "System.Data.SqlClient/4.8.5": {
        "dependencies": {
          "Microsoft.Win32.Registry": "4.7.0",
          "System.Security.Principal.Windows": "5.0.0",
          "runtime.native.System.Data.SqlClient.sni": "4.7.0"
        },
        "runtime": {
          "lib/netcoreapp2.1/System.Data.SqlClient.dll": {
            "assemblyVersion": "4.6.1.5",
            "fileVersion": "4.700.22.51706"
          }
        },
        "runtimeTargets": {
          "runtimes/unix/lib/netcoreapp2.1/System.Data.SqlClient.dll": {
            "rid": "unix",
            "assetType": "runtime",
            "assemblyVersion": "4.6.1.5",
            "fileVersion": "4.700.22.51706"
          },
          "runtimes/win/lib/netcoreapp2.1/System.Data.SqlClient.dll": {
            "rid": "win",
            "assetType": "runtime",
            "assemblyVersion": "4.6.1.5",
            "fileVersion": "4.700.22.51706"
          }
        }
      },
      "System.Diagnostics.DiagnosticSource/6.0.0": {
        "dependencies": {
          "System.Runtime.CompilerServices.Unsafe": "6.0.0"
        }
      },
      "System.Diagnostics.PerformanceCounter/6.0.0": {
        "dependencies": {
          "System.Configuration.ConfigurationManager": "6.0.1"
        }
      },
      "System.Drawing.Common/6.0.0": {
        "dependencies": {
          "Microsoft.Win32.SystemEvents": "6.0.0"
        }
      },
      "System.Formats.Asn1/5.0.0": {},
      "System.Globalization/4.3.0": {
        "dependencies": {
          "Microsoft.NETCore.Platforms": "1.1.0",
          "Microsoft.NETCore.Targets": "1.1.0",
          "System.Runtime": "4.3.0"
        }
      },
      "System.IdentityModel.Tokens.Jwt/6.32.2": {
        "dependencies": {
          "Microsoft.IdentityModel.JsonWebTokens": "6.32.2",
          "Microsoft.IdentityModel.Tokens": "6.32.2"
        },
        "runtime": {
          "lib/net6.0/System.IdentityModel.Tokens.Jwt.dll": {
            "assemblyVersion": "6.32.2.0",
            "fileVersion": "6.32.2.40825"
          }
        }
      },
      "System.IO/4.3.0": {
        "dependencies": {
          "Microsoft.NETCore.Platforms": "1.1.0",
          "Microsoft.NETCore.Targets": "1.1.0",
          "System.Runtime": "4.3.0",
          "System.Text.Encoding": "4.3.0",
          "System.Threading.Tasks": "4.3.0"
        }
      },
      "System.Management/6.0.0": {
        "dependencies": {
          "System.CodeDom": "6.0.0"
        },
        "runtime": {
          "lib/net6.0/System.Management.dll": {
            "assemblyVersion": "4.0.0.0",
            "fileVersion": "6.0.21.52210"
          }
        },
        "runtimeTargets": {
          "runtimes/win/lib/net6.0/System.Management.dll": {
            "rid": "win",
            "assetType": "runtime",
            "assemblyVersion": "4.0.0.0",
            "fileVersion": "6.0.21.52210"
          }
        }
      },
      "System.Memory/4.5.4": {},
      "System.Memory.Data/1.0.2": {
        "dependencies": {
          "System.Text.Encodings.Web": "6.0.0",
          "System.Text.Json": "6.0.0"
        },
        "runtime": {
          "lib/netstandard2.0/System.Memory.Data.dll": {
            "assemblyVersion": "1.0.2.0",
            "fileVersion": "1.0.221.20802"
          }
        }
      },
      "System.Numerics.Vectors/4.5.0": {},
      "System.Reflection/4.3.0": {
        "dependencies": {
          "Microsoft.NETCore.Platforms": "1.1.0",
          "Microsoft.NETCore.Targets": "1.1.0",
          "System.IO": "4.3.0",
          "System.Reflection.Primitives": "4.3.0",
          "System.Runtime": "4.3.0"
        }
      },
      "System.Reflection.Primitives/4.3.0": {
        "dependencies": {
          "Microsoft.NETCore.Platforms": "1.1.0",
          "Microsoft.NETCore.Targets": "1.1.0",
          "System.Runtime": "4.3.0"
        }
      },
      "System.Resources.ResourceManager/4.3.0": {
        "dependencies": {
          "Microsoft.NETCore.Platforms": "1.1.0",
          "Microsoft.NETCore.Targets": "1.1.0",
          "System.Globalization": "4.3.0",
          "System.Reflection": "4.3.0",
          "System.Runtime": "4.3.0"
        }
      },
      "System.Runtime/4.3.0": {
        "dependencies": {
          "Microsoft.NETCore.Platforms": "1.1.0",
          "Microsoft.NETCore.Targets": "1.1.0"
        }
      },
      "System.Runtime.Caching/6.0.0": {
        "dependencies": {
          "System.Configuration.ConfigurationManager": "6.0.1"
        },
        "runtime": {
          "lib/net6.0/System.Runtime.Caching.dll": {
            "assemblyVersion": "4.0.0.0",
            "fileVersion": "6.0.21.52210"
          }
        },
        "runtimeTargets": {
          "runtimes/win/lib/net6.0/System.Runtime.Caching.dll": {
            "rid": "win",
            "assetType": "runtime",
            "assemblyVersion": "4.0.0.0",
            "fileVersion": "6.0.21.52210"
          }
        }
      },
      "System.Runtime.CompilerServices.Unsafe/6.0.0": {},
      "System.Runtime.Extensions/4.3.0": {
        "dependencies": {
          "Microsoft.NETCore.Platforms": "1.1.0",
          "Microsoft.NETCore.Targets": "1.1.0",
          "System.Runtime": "4.3.0"
        }
      },
      "System.Security.AccessControl/6.0.0": {},
      "System.Security.Claims/4.3.0": {
        "dependencies": {
          "System.Collections": "4.3.0",
          "System.Globalization": "4.3.0",
          "System.IO": "4.3.0",
          "System.Resources.ResourceManager": "4.3.0",
          "System.Runtime": "4.3.0",
          "System.Runtime.Extensions": "4.3.0",
          "System.Security.Principal": "4.3.0"
        }
      },
      "System.Security.Cryptography.Cng/5.0.0": {
        "dependencies": {
          "System.Formats.Asn1": "5.0.0"
        }
      },
      "System.Security.Cryptography.ProtectedData/6.0.0": {},
      "System.Security.Permissions/6.0.0": {
        "dependencies": {
          "System.Security.AccessControl": "6.0.0",
          "System.Windows.Extensions": "6.0.0"
        }
      },
      "System.Security.Principal/4.3.0": {
        "dependencies": {
          "System.Runtime": "4.3.0"
        }
      },
      "System.Security.Principal.Windows/5.0.0": {},
      "System.Text.Encoding/4.3.0": {
        "dependencies": {
          "Microsoft.NETCore.Platforms": "1.1.0",
          "Microsoft.NETCore.Targets": "1.1.0",
          "System.Runtime": "4.3.0"
        }
      },
      "System.Text.Encoding.CodePages/6.0.0": {
        "dependencies": {
          "System.Runtime.CompilerServices.Unsafe": "6.0.0"
        }
      },
      "System.Text.Encodings.Web/6.0.0": {
        "dependencies": {
          "System.Runtime.CompilerServices.Unsafe": "6.0.0"
        }
      },
      "System.Text.Json/6.0.0": {
        "dependencies": {
          "System.Runtime.CompilerServices.Unsafe": "6.0.0",
          "System.Text.Encodings.Web": "6.0.0"
        }
      },
      "System.Threading.Tasks/4.3.0": {
        "dependencies": {
          "Microsoft.NETCore.Platforms": "1.1.0",
          "Microsoft.NETCore.Targets": "1.1.0",
          "System.Runtime": "4.3.0"
        }
      },
      "System.Threading.Tasks.Extensions/4.5.4": {},
      "System.ValueTuple/4.5.0": {},
      "System.Windows.Extensions/6.0.0": {
        "dependencies": {
          "System.Drawing.Common": "6.0.0"
        }
      },
      "Tavis.UriTemplates/2.0.0": {
        "runtime": {
          "lib/netstandard2.0/Tavis.UriTemplates.dll": {
            "assemblyVersion": "2.0.0.0",
            "fileVersion": "2.0.0.0"
          }
        }
      }
    }
  },
  "libraries": {
    "LowMemoryDetection/1.0.0": {
      "type": "project",
      "serviceable": false,
      "sha512": ""
    },
    "Azure.Core/1.33.0": {
      "type": "package",
      "serviceable": true,
      "sha512": "sha512-p06/5ueyCwKe09zqz7bPR6vbWRGrDy6Ot4aqjrjnowhFlXUBoljUdH+abDZP2vUuSZrOSstF4h860hBHWh8uHg==",
      "path": "azure.core/1.33.0",
      "hashPath": "azure.core.1.33.0.nupkg.sha512"
    },
    "Azure.Identity/1.7.0": {
      "type": "package",
      "serviceable": true,
      "sha512": "sha512-eHEiCO/8+MfNc9nH5dVew/+FvxdaGrkRL4OMNwIz0W79+wtJyEoeRlXJ3SrXhoy9XR58geBYKmzMR83VO7bcAw==",
      "path": "azure.identity/1.7.0",
      "hashPath": "azure.identity.1.7.0.nupkg.sha512"
    },
    "Microsoft.Bcl.AsyncInterfaces/1.1.1": {
      "type": "package",
      "serviceable": true,
      "sha512": "sha512-yuvf07qFWFqtK3P/MRkEKLhn5r2UbSpVueRziSqj0yJQIKFwG1pq9mOayK3zE5qZCTs0CbrwL9M6R8VwqyGy2w==",
      "path": "microsoft.bcl.asyncinterfaces/1.1.1",
      "hashPath": "microsoft.bcl.asyncinterfaces.1.1.1.nupkg.sha512"
    },
    "Microsoft.CSharp/4.5.0": {
      "type": "package",
      "serviceable": true,
      "sha512": "sha512-kaj6Wb4qoMuH3HySFJhxwQfe8R/sJsNJnANrvv8WdFPMoNbKY5htfNscv+LHCu5ipz+49m2e+WQXpLXr9XYemQ==",
      "path": "microsoft.csharp/4.5.0",
      "hashPath": "microsoft.csharp.4.5.0.nupkg.sha512"
    },
    "Microsoft.Data.SqlClient/5.1.1": {
      "type": "package",
      "serviceable": true,
      "sha512": "sha512-MW5E9HFvCaV069o8b6YpuRDPBux8s96qDnOJ+4N9QNUCs7c5W3KxwQ+ftpAjbMUlImL+c9WR+l+f5hzjkqhu2g==",
      "path": "microsoft.data.sqlclient/5.1.1",
      "hashPath": "microsoft.data.sqlclient.5.1.1.nupkg.sha512"
    },
    "Microsoft.Data.SqlClient.SNI.runtime/5.1.0": {
      "type": "package",
      "serviceable": true,
      "sha512": "sha512-jVsElisM5sfBzaaV9kdq2NXZLwIbytetnsOIlJ0cQGgQP4zFNBmkfHBnpwtmKrtBJBEV9+9PVQPVrcCVhDgcIg==",
      "path": "microsoft.data.sqlclient.sni.runtime/5.1.0",
      "hashPath": "microsoft.data.sqlclient.sni.runtime.5.1.0.nupkg.sha512"
    },
    "Microsoft.Graph/5.27.0": {
      "type": "package",
      "serviceable": true,
      "sha512": "sha512-0WLi/qeJFUTOh6RsbNXwQ+xzhZIYcXlVZWTZVljxiwB9Eb/IRj44OWQEVihSU9wMrH9iqq+Y7lhih9Cm7f6raw==",
      "path": "microsoft.graph/5.27.0",
      "hashPath": "microsoft.graph.5.27.0.nupkg.sha512"
    },
    "Microsoft.Graph.Auth/1.0.0-preview.7": {
      "type": "package",
      "serviceable": true,
      "sha512": "sha512-HZlh6hS01KUT0KpWdf7UDQKuWn2kpoBNps+wfolhsNwat3vaeXtOttFytvCzEdYm6+7BK0KxZCDXqRBe1y+2zw==",
      "path": "microsoft.graph.auth/1.0.0-preview.7",
      "hashPath": "microsoft.graph.auth.1.0.0-preview.7.nupkg.sha512"
    },
    "Microsoft.Graph.Core/3.0.11": {
      "type": "package",
      "serviceable": true,
      "sha512": "sha512-3+0dXYU6Ss+CXs4S0ga1RKUVTRHCkvpMRgPaKiAoVsY6BSYan2s/81gv3GPL/RoE6XU93sMxmWSlwH+6TsgTcQ==",
      "path": "microsoft.graph.core/3.0.11",
      "hashPath": "microsoft.graph.core.3.0.11.nupkg.sha512"
    },
    "Microsoft.Identity.Client/4.56.0": {
      "type": "package",
      "serviceable": true,
      "sha512": "sha512-rr4zbidvHy9r4NvOAs5hdd964Ao2A0pAeFBJKR95u1CJAVzbd1p6tPTXUZ+5ld0cfThiVSGvz6UHwY6JjraTpA==",
      "path": "microsoft.identity.client/4.56.0",
      "hashPath": "microsoft.identity.client.4.56.0.nupkg.sha512"
    },
    "Microsoft.Identity.Client.Extensions.Msal/2.19.3": {
      "type": "package",
      "serviceable": true,
      "sha512": "sha512-zVVZjn8aW7W79rC1crioDgdOwaFTQorsSO6RgVlDDjc7MvbEGz071wSNrjVhzR0CdQn6Sefx7Abf1o7vasmrLg==",
      "path": "microsoft.identity.client.extensions.msal/2.19.3",
      "hashPath": "microsoft.identity.client.extensions.msal.2.19.3.nupkg.sha512"
    },
    "Microsoft.Identity.Client.NativeInterop/0.13.8": {
      "type": "package",
      "serviceable": true,
      "sha512": "sha512-eccVwaDOan12YJrh6ntIBIXeKTNoWz+af2/c13lhvrDoX0ydVXitCXMJVz0dh2eJK5y2KJ7IfkEvNilB/A9V7A==",
      "path": "microsoft.identity.client.nativeinterop/0.13.8",
      "hashPath": "microsoft.identity.client.nativeinterop.0.13.8.nupkg.sha512"
    },
    "Microsoft.IdentityModel.Abstractions/6.32.2": {
      "type": "package",
      "serviceable": true,
      "sha512": "sha512-Ul0qehKXMlq6+73l2w8/daStt8InzIzTzwt2fcMHGbe7pI5pBnwrLEwqALAxcnOkMy2wFY45kJn7QilaOdbkgw==",
      "path": "microsoft.identitymodel.abstractions/6.32.2",
      "hashPath": "microsoft.identitymodel.abstractions.6.32.2.nupkg.sha512"
    },
    "Microsoft.IdentityModel.JsonWebTokens/6.32.2": {
      "type": "package",
      "serviceable": true,
      "sha512": "sha512-QfoQdEBDir4ShH3ub/hObgNCqoH3/5bhtyMshn6WhD/3PA7lKQyIEU5QpFUON/XeOcdYQqBmzqlgwTo27C9DgQ==",
      "path": "microsoft.identitymodel.jsonwebtokens/6.32.2",
      "hashPath": "microsoft.identitymodel.jsonwebtokens.6.32.2.nupkg.sha512"
    },
    "Microsoft.IdentityModel.Logging/6.32.2": {
      "type": "package",
      "serviceable": true,
      "sha512": "sha512-OgXpzJVBIQNdoyYCNgFprMZGrn2aAcU08w2oqyA2RvGrYvcVWsxJsygGcrMN0vDTvCwKUlpvjqT84eEktp3Avg==",
      "path": "microsoft.identitymodel.logging/6.32.2",
      "hashPath": "microsoft.identitymodel.logging.6.32.2.nupkg.sha512"
    },
    "Microsoft.IdentityModel.Protocols/6.32.2": {
      "type": "package",
      "serviceable": true,
      "sha512": "sha512-8OxIh/mraBLnyg/ezu/zbaQwv7p+2fSLdXlEb43hN3AWKNNIbWnXPrkbr2DmKfcUqFbL1vn+c2EKDzt/R7p8Hg==",
      "path": "microsoft.identitymodel.protocols/6.32.2",
      "hashPath": "microsoft.identitymodel.protocols.6.32.2.nupkg.sha512"
    },
    "Microsoft.IdentityModel.Protocols.OpenIdConnect/6.32.2": {
      "type": "package",
      "serviceable": true,
      "sha512": "sha512-qUuTzbB7JPGTK52TXeNxgUqxi62mmGT+xbUKTgeIVq+fE7Qj1kn+Ttkd76m7Ah2Y/VOecBlD4TK15vHFfVfjBg==",
      "path": "microsoft.identitymodel.protocols.openidconnect/6.32.2",
      "hashPath": "microsoft.identitymodel.protocols.openidconnect.6.32.2.nupkg.sha512"
    },
    "Microsoft.IdentityModel.Tokens/6.32.2": {
      "type": "package",
      "serviceable": true,
      "sha512": "sha512-U4er/0UAY0AE8/Rzu9xHV1z95IqV3IbFZpqi2I4/042EBldb+s+E4lhZ3axuuioqg1mU1Ucr5Kq2EOCjf2JSgQ==",
      "path": "microsoft.identitymodel.tokens/6.32.2",
      "hashPath": "microsoft.identitymodel.tokens.6.32.2.nupkg.sha512"
    },
    "Microsoft.Kiota.Abstractions/1.3.1": {
      "type": "package",
      "serviceable": true,
      "sha512": "sha512-XkJxqQEf7aGczbN4pZtp6fPCycWDa2pj6GjnGUBHXpVTtBM+XXbUhkgBdmyXrznE6CFnCyY0W+WqljnNL0DywQ==",
      "path": "microsoft.kiota.abstractions/1.3.1",
      "hashPath": "microsoft.kiota.abstractions.1.3.1.nupkg.sha512"
    },
    "Microsoft.Kiota.Authentication.Azure/1.0.3": {
      "type": "package",
      "serviceable": true,
      "sha512": "sha512-jRnYE73KVDsFYwxUgG53S+3rWx/1R/zsoMhJJoj7Q7dnNUuuUt9KXff8OJ8/DWDYVj0GXB0N67yfY+AfAr6XzA==",
      "path": "microsoft.kiota.authentication.azure/1.0.3",
      "hashPath": "microsoft.kiota.authentication.azure.1.0.3.nupkg.sha512"
    },
    "Microsoft.Kiota.Http.HttpClientLibrary/1.1.1": {
      "type": "package",
      "serviceable": true,
      "sha512": "sha512-aKCaIH4g7O+knvX21kFiACKAM+6Zlxxl2Zng1u+0ZSyp0yd/sDT9GiOwt0l68PI+NFpn47fbo5R23dBZWSzgVg==",
      "path": "microsoft.kiota.http.httpclientlibrary/1.1.1",
      "hashPath": "microsoft.kiota.http.httpclientlibrary.1.1.1.nupkg.sha512"
    },
    "Microsoft.Kiota.Serialization.Form/1.0.1": {
      "type": "package",
      "serviceable": true,
      "sha512": "sha512-o6CHBpiguOdRdIFEF7ggn/8c7Ido6iWr4jxDbnWQ304wjogfix7JIxq4gixT5yFePXJIqDbrW11biWfasCUIrw==",
      "path": "microsoft.kiota.serialization.form/1.0.1",
      "hashPath": "microsoft.kiota.serialization.form.1.0.1.nupkg.sha512"
    },
    "Microsoft.Kiota.Serialization.Json/1.0.8": {
      "type": "package",
      "serviceable": true,
      "sha512": "sha512-Y41gvO5rQEeKqERCVNHjbySngzx12cxaIRq5aO/IvDkvqL81dwmszyD/4eDqyU7diA8kRZNljJgWFcPWYxQj+w==",
      "path": "microsoft.kiota.serialization.json/1.0.8",
      "hashPath": "microsoft.kiota.serialization.json.1.0.8.nupkg.sha512"
    },
    "Microsoft.Kiota.Serialization.Multipart/1.0.0": {
      "type": "package",
      "serviceable": true,
      "sha512": "sha512-vTVBrd/52pclnq6ui2rDsvH8voJSHlgEvkQFo/ECOh2BnI/ieVI6pi1ZdIiPz9Kf7Q7eVPFXpRRfteJq6XfRVA==",
      "path": "microsoft.kiota.serialization.multipart/1.0.0",
      "hashPath": "microsoft.kiota.serialization.multipart.1.0.0.nupkg.sha512"
    },
    "Microsoft.Kiota.Serialization.Text/1.0.3": {
      "type": "package",
      "serviceable": true,
      "sha512": "sha512-R2dXH/9QWQ7Zn9Br0aeYzkO4WV2I14qs5azeKmxO8AW7S1j6TYiRFLWAXh1WdcVTi4dVwieEWaEfhQsFnRbbrA==",
      "path": "microsoft.kiota.serialization.text/1.0.3",
      "hashPath": "microsoft.kiota.serialization.text.1.0.3.nupkg.sha512"
    },
    "Microsoft.NETCore.Platforms/1.1.0": {
      "type": "package",
      "serviceable": true,
      "sha512": "sha512-kz0PEW2lhqygehI/d6XsPCQzD7ff7gUJaVGPVETX611eadGsA3A877GdSlU0LRVMCTH/+P3o2iDTak+S08V2+A==",
      "path": "microsoft.netcore.platforms/1.1.0",
      "hashPath": "microsoft.netcore.platforms.1.1.0.nupkg.sha512"
    },
    "Microsoft.NETCore.Targets/1.1.0": {
      "type": "package",
      "serviceable": true,
      "sha512": "sha512-aOZA3BWfz9RXjpzt0sRJJMjAscAUm3Hoa4UWAfceV9UTYxgwZ1lZt5nO2myFf+/jetYQo4uTP7zS8sJY67BBxg==",
      "path": "microsoft.netcore.targets/1.1.0",
      "hashPath": "microsoft.netcore.targets.1.1.0.nupkg.sha512"
    },
    "Microsoft.SqlServer.Assessment/1.1.9": {
      "type": "package",
      "serviceable": true,
      "sha512": "sha512-ukj0Qkv9Ezkwrk9JNmCHZWEEZNjKYOF57ajiznl47zG1Zz6uOsBL72DbvBaZhfY0DdaUj65aGrgEz5QHeAC77g==",
      "path": "microsoft.sqlserver.assessment/1.1.9",
      "hashPath": "microsoft.sqlserver.assessment.1.1.9.nupkg.sha512"
    },
    "Microsoft.SqlServer.Assessment.Authoring/1.1.0": {
      "type": "package",
      "serviceable": true,
      "sha512": "sha512-BQfTaqXtF/e7Vl1DmfUHAZ/qC2H4/KlhFjSxjx+f73mVnhDEB2+N30GBpZxz3ZndiRPNGiyqQsO92VfeEpGxPg==",
      "path": "microsoft.sqlserver.assessment.authoring/1.1.0",
      "hashPath": "microsoft.sqlserver.assessment.authoring.1.1.0.nupkg.sha512"
    },
    "Microsoft.SqlServer.Server/1.0.0": {
      "type": "package",
      "serviceable": true,
      "sha512": "sha512-N4KeF3cpcm1PUHym1RmakkzfkEv3GRMyofVv40uXsQhCQeglr2OHNcUk2WOG51AKpGO8ynGpo9M/kFXSzghwug==",
      "path": "microsoft.sqlserver.server/1.0.0",
      "hashPath": "microsoft.sqlserver.server.1.0.0.nupkg.sha512"
    },
    "Microsoft.SqlServer.SqlManagementObjects/170.18.0": {
      "type": "package",
      "serviceable": true,
      "sha512": "sha512-iN+plgNRqAceVyP7yJeWH2jzfEO7OMrW81Jb4IDCJEvHCheCGXyuXXvkJs6qhS0hHnsIxAtiCquww2Mtq7PA0A==",
      "path": "microsoft.sqlserver.sqlmanagementobjects/170.18.0",
      "hashPath": "microsoft.sqlserver.sqlmanagementobjects.170.18.0.nupkg.sha512"
    },
    "Microsoft.Web.WebView2/1.0.864.35": {
      "type": "package",
      "serviceable": true,
      "sha512": "sha512-V1qyLRiAZ31qmOOCFCjoONgaUfvJRiTHWcJWkT3V7pluM2+P6QAgqmbE4UX7Gt4sh6eN34wqM30OnTZ6HXI/sw==",
      "path": "microsoft.web.webview2/1.0.864.35",
      "hashPath": "microsoft.web.webview2.1.0.864.35.nupkg.sha512"
    },
    "Microsoft.Win32.Registry/4.7.0": {
      "type": "package",
      "serviceable": true,
      "sha512": "sha512-KSrRMb5vNi0CWSGG1++id2ZOs/1QhRqROt+qgbEAdQuGjGrFcl4AOl4/exGPUYz2wUnU42nvJqon1T3U0kPXLA==",
      "path": "microsoft.win32.registry/4.7.0",
      "hashPath": "microsoft.win32.registry.4.7.0.nupkg.sha512"
    },
    "Microsoft.Win32.SystemEvents/6.0.0": {
      "type": "package",
      "serviceable": true,
      "sha512": "sha512-hqTM5628jSsQiv+HGpiq3WKBl2c8v1KZfby2J6Pr7pEPlK9waPdgEO6b8A/+/xn/yZ9ulv8HuqK71ONy2tg67A==",
      "path": "microsoft.win32.systemevents/6.0.0",
      "hashPath": "microsoft.win32.systemevents.6.0.0.nupkg.sha512"
    },
    "NETStandard.Library/2.0.3": {
      "type": "package",
      "serviceable": true,
      "sha512": "sha512-st47PosZSHrjECdjeIzZQbzivYBJFv6P2nv4cj2ypdI204DO+vZ7l5raGMiX4eXMJ53RfOIg+/s4DHVZ54Nu2A==",
      "path": "netstandard.library/2.0.3",
      "hashPath": "netstandard.library.2.0.3.nupkg.sha512"
    },
    "Newtonsoft.Json/13.0.3": {
      "type": "package",
      "serviceable": true,
      "sha512": "sha512-HrC5BXdl00IP9zeV+0Z848QWPAoCr9P3bDEZguI+gkLcBKAOxix/tLEAAHC+UvDNPv4a2d18lOReHMOagPa+zQ==",
      "path": "newtonsoft.json/13.0.3",
      "hashPath": "newtonsoft.json.13.0.3.nupkg.sha512"
    },
    "runtime.native.System.Data.SqlClient.sni/4.7.0": {
      "type": "package",
      "serviceable": true,
      "sha512": "sha512-9kyFSIdN3T0qjDQ2R0HRXYIhS3l5psBzQi6qqhdLz+SzFyEy4sVxNOke+yyYv8Cu8rPER12c3RDjLT8wF3WBYQ==",
      "path": "runtime.native.system.data.sqlclient.sni/4.7.0",
      "hashPath": "runtime.native.system.data.sqlclient.sni.4.7.0.nupkg.sha512"
    },
    "runtime.win-arm64.runtime.native.System.Data.SqlClient.sni/4.4.0": {
      "type": "package",
      "serviceable": true,
      "sha512": "sha512-LbrynESTp3bm5O/+jGL8v0Qg5SJlTV08lpIpFesXjF6uGNMWqFnUQbYBJwZTeua6E/Y7FIM1C54Ey1btLWupdg==",
      "path": "runtime.win-arm64.runtime.native.system.data.sqlclient.sni/4.4.0",
      "hashPath": "runtime.win-arm64.runtime.native.system.data.sqlclient.sni.4.4.0.nupkg.sha512"
    },
    "runtime.win-x64.runtime.native.System.Data.SqlClient.sni/4.4.0": {
      "type": "package",
      "serviceable": true,
      "sha512": "sha512-38ugOfkYJqJoX9g6EYRlZB5U2ZJH51UP8ptxZgdpS07FgOEToV+lS11ouNK2PM12Pr6X/PpT5jK82G3DwH/SxQ==",
      "path": "runtime.win-x64.runtime.native.system.data.sqlclient.sni/4.4.0",
      "hashPath": "runtime.win-x64.runtime.native.system.data.sqlclient.sni.4.4.0.nupkg.sha512"
    },
    "runtime.win-x86.runtime.native.System.Data.SqlClient.sni/4.4.0": {
      "type": "package",
      "serviceable": true,
      "sha512": "sha512-YhEdSQUsTx+C8m8Bw7ar5/VesXvCFMItyZF7G1AUY+OM0VPZUOeAVpJ4Wl6fydBGUYZxojTDR3I6Bj/+BPkJNA==",
      "path": "runtime.win-x86.runtime.native.system.data.sqlclient.sni/4.4.0",
      "hashPath": "runtime.win-x86.runtime.native.system.data.sqlclient.sni.4.4.0.nupkg.sha512"
    },
    "System.Buffers/4.5.1": {
      "type": "package",
      "serviceable": true,
      "sha512": "sha512-Rw7ijyl1qqRS0YQD/WycNst8hUUMgrMH4FCn1nNm27M4VxchZ1js3fVjQaANHO5f3sN4isvP4a+Met9Y4YomAg==",
      "path": "system.buffers/4.5.1",
      "hashPath": "system.buffers.4.5.1.nupkg.sha512"
    },
    "System.CodeDom/6.0.0": {
      "type": "package",
      "serviceable": true,
      "sha512": "sha512-CPc6tWO1LAer3IzfZufDBRL+UZQcj5uS207NHALQzP84Vp/z6wF0Aa0YZImOQY8iStY0A2zI/e3ihKNPfUm8XA==",
      "path": "system.codedom/6.0.0",
      "hashPath": "system.codedom.6.0.0.nupkg.sha512"
    },
    "System.Collections/4.3.0": {
      "type": "package",
      "serviceable": true,
      "sha512": "sha512-3Dcj85/TBdVpL5Zr+gEEBUuFe2icOnLalmEh9hfck1PTYbbyWuZgh4fmm2ysCLTrqLQw6t3TgTyJ+VLp+Qb+Lw==",
      "path": "system.collections/4.3.0",
      "hashPath": "system.collections.4.3.0.nupkg.sha512"
    },
    "System.Configuration.ConfigurationManager/6.0.1": {
      "type": "package",
      "serviceable": true,
      "sha512": "sha512-jXw9MlUu/kRfEU0WyTptAVueupqIeE3/rl0EZDMlf8pcvJnitQ8HeVEp69rZdaStXwTV72boi/Bhw8lOeO+U2w==",
      "path": "system.configuration.configurationmanager/6.0.1",
      "hashPath": "system.configuration.configurationmanager.6.0.1.nupkg.sha512"
    },
    "System.Data.OleDb/6.0.0": {
      "type": "package",
      "serviceable": true,
      "sha512": "sha512-LQ8PjTIF1LtrrlGiyiTVjAkQtTWKm9GSNnygIlWjhN9y88s7xhy6DUNDDkmQQ9f6ex7mA4k0Tl97lz/CklaiLg==",
      "path": "system.data.oledb/6.0.0",
      "hashPath": "system.data.oledb.6.0.0.nupkg.sha512"
    },
    "System.Data.SqlClient/4.8.5": {
      "type": "package",
      "serviceable": true,
      "sha512": "sha512-fRqxut4lrndPHrXD+ht1XRmCL3obuKldm4XjCRYS9p5f7FSR7shBxAwTkDrpFMsHC9BhNgjjmUtiIjvehn5zkg==",
      "path": "system.data.sqlclient/4.8.5",
      "hashPath": "system.data.sqlclient.4.8.5.nupkg.sha512"
    },
    "System.Diagnostics.DiagnosticSource/6.0.0": {
      "type": "package",
      "serviceable": true,
      "sha512": "sha512-frQDfv0rl209cKm1lnwTgFPzNigy2EKk1BS3uAvHvlBVKe5cymGyHO+Sj+NLv5VF/AhHsqPIUUwya5oV4CHMUw==",
      "path": "system.diagnostics.diagnosticsource/6.0.0",
      "hashPath": "system.diagnostics.diagnosticsource.6.0.0.nupkg.sha512"
    },
    "System.Diagnostics.PerformanceCounter/6.0.0": {
      "type": "package",
      "serviceable": true,
      "sha512": "sha512-gbeE5tNp/oB7O8kTTLh3wPPJCxpNOphXPTWVs1BsYuFOYapFijWuh0LYw1qnDo4gwDUYPXOmpTIhvtxisGsYOQ==",
      "path": "system.diagnostics.performancecounter/6.0.0",
      "hashPath": "system.diagnostics.performancecounter.6.0.0.nupkg.sha512"
    },
    "System.Drawing.Common/6.0.0": {
      "type": "package",
      "serviceable": true,
      "sha512": "sha512-NfuoKUiP2nUWwKZN6twGqXioIe1zVD0RIj2t976A+czLHr2nY454RwwXs6JU9Htc6mwqL6Dn/nEL3dpVf2jOhg==",
      "path": "system.drawing.common/6.0.0",
      "hashPath": "system.drawing.common.6.0.0.nupkg.sha512"
    },
    "System.Formats.Asn1/5.0.0": {
      "type": "package",
      "serviceable": true,
      "sha512": "sha512-MTvUIktmemNB+El0Fgw9egyqT9AYSIk6DTJeoDSpc3GIHxHCMo8COqkWT1mptX5tZ1SlQ6HJZ0OsSvMth1c12w==",
      "path": "system.formats.asn1/5.0.0",
      "hashPath": "system.formats.asn1.5.0.0.nupkg.sha512"
    },
    "System.Globalization/4.3.0": {
      "type": "package",
      "serviceable": true,
      "sha512": "sha512-kYdVd2f2PAdFGblzFswE4hkNANJBKRmsfa2X5LG2AcWE1c7/4t0pYae1L8vfZ5xvE2nK/R9JprtToA61OSHWIg==",
      "path": "system.globalization/4.3.0",
      "hashPath": "system.globalization.4.3.0.nupkg.sha512"
    },
    "System.IdentityModel.Tokens.Jwt/6.32.2": {
      "type": "package",
      "serviceable": true,
      "sha512": "sha512-rChCYKLnmKLO8xFcLmOYSJh4lJXV1XkyddblRK5H3C3KDC/oYMMesU6oHd5CjvlqH1L5umtil1FQKYZG4/qDfQ==",
      "path": "system.identitymodel.tokens.jwt/6.32.2",
      "hashPath": "system.identitymodel.tokens.jwt.6.32.2.nupkg.sha512"
    },
    "System.IO/4.3.0": {
      "type": "package",
      "serviceable": true,
      "sha512": "sha512-3qjaHvxQPDpSOYICjUoTsmoq5u6QJAFRUITgeT/4gqkF1bajbSmb1kwSxEA8AHlofqgcKJcM8udgieRNhaJ5Cg==",
      "path": "system.io/4.3.0",
      "hashPath": "system.io.4.3.0.nupkg.sha512"
    },
    "System.Management/6.0.0": {
      "type": "package",
      "serviceable": true,
      "sha512": "sha512-sHsESYMmPDhQuOC66h6AEOs/XowzKsbT9srMbX71TCXP58hkpn1BqBjdmKj1+DCA/WlBETX1K5WjQHwmV0Txrg==",
      "path": "system.management/6.0.0",
      "hashPath": "system.management.6.0.0.nupkg.sha512"
    },
    "System.Memory/4.5.4": {
      "type": "package",
      "serviceable": true,
      "sha512": "sha512-1MbJTHS1lZ4bS4FmsJjnuGJOu88ZzTT2rLvrhW7Ygic+pC0NWA+3hgAen0HRdsocuQXCkUTdFn9yHJJhsijDXw==",
      "path": "system.memory/4.5.4",
      "hashPath": "system.memory.4.5.4.nupkg.sha512"
    },
    "System.Memory.Data/1.0.2": {
      "type": "package",
      "serviceable": true,
      "sha512": "sha512-JGkzeqgBsiZwKJZ1IxPNsDFZDhUvuEdX8L8BDC8N3KOj+6zMcNU28CNN59TpZE/VJYy9cP+5M+sbxtWJx3/xtw==",
      "path": "system.memory.data/1.0.2",
      "hashPath": "system.memory.data.1.0.2.nupkg.sha512"
    },
    "System.Numerics.Vectors/4.5.0": {
      "type": "package",
      "serviceable": true,
      "sha512": "sha512-QQTlPTl06J/iiDbJCiepZ4H//BVraReU4O4EoRw1U02H5TLUIT7xn3GnDp9AXPSlJUDyFs4uWjWafNX6WrAojQ==",
      "path": "system.numerics.vectors/4.5.0",
      "hashPath": "system.numerics.vectors.4.5.0.nupkg.sha512"
    },
    "System.Reflection/4.3.0": {
      "type": "package",
      "serviceable": true,
      "sha512": "sha512-KMiAFoW7MfJGa9nDFNcfu+FpEdiHpWgTcS2HdMpDvt9saK3y/G4GwprPyzqjFH9NTaGPQeWNHU+iDlDILj96aQ==",
      "path": "system.reflection/4.3.0",
      "hashPath": "system.reflection.4.3.0.nupkg.sha512"
    },
    "System.Reflection.Primitives/4.3.0": {
      "type": "package",
      "serviceable": true,
      "sha512": "sha512-5RXItQz5As4xN2/YUDxdpsEkMhvw3e6aNveFXUn4Hl/udNTCNhnKp8lT9fnc3MhvGKh1baak5CovpuQUXHAlIA==",
      "path": "system.reflection.primitives/4.3.0",
      "hashPath": "system.reflection.primitives.4.3.0.nupkg.sha512"
    },
    "System.Resources.ResourceManager/4.3.0": {
      "type": "package",
      "serviceable": true,
      "sha512": "sha512-/zrcPkkWdZmI4F92gL/TPumP98AVDu/Wxr3CSJGQQ+XN6wbRZcyfSKVoPo17ilb3iOr0cCRqJInGwNMolqhS8A==",
      "path": "system.resources.resourcemanager/4.3.0",
      "hashPath": "system.resources.resourcemanager.4.3.0.nupkg.sha512"
    },
    "System.Runtime/4.3.0": {
      "type": "package",
      "serviceable": true,
      "sha512": "sha512-JufQi0vPQ0xGnAczR13AUFglDyVYt4Kqnz1AZaiKZ5+GICq0/1MH/mO/eAJHt/mHW1zjKBJd7kV26SrxddAhiw==",
      "path": "system.runtime/4.3.0",
      "hashPath": "system.runtime.4.3.0.nupkg.sha512"
    },
    "System.Runtime.Caching/6.0.0": {
      "type": "package",
      "serviceable": true,
      "sha512": "sha512-E0e03kUp5X2k+UAoVl6efmI7uU7JRBWi5EIdlQ7cr0NpBGjHG4fWII35PgsBY9T4fJQ8E4QPsL0rKksU9gcL5A==",
      "path": "system.runtime.caching/6.0.0",
      "hashPath": "system.runtime.caching.6.0.0.nupkg.sha512"
    },
    "System.Runtime.CompilerServices.Unsafe/6.0.0": {
      "type": "package",
      "serviceable": true,
      "sha512": "sha512-/iUeP3tq1S0XdNNoMz5C9twLSrM/TH+qElHkXWaPvuNOt+99G75NrV0OS2EqHx5wMN7popYjpc8oTjC1y16DLg==",
      "path": "system.runtime.compilerservices.unsafe/6.0.0",
      "hashPath": "system.runtime.compilerservices.unsafe.6.0.0.nupkg.sha512"
    },
    "System.Runtime.Extensions/4.3.0": {
      "type": "package",
      "serviceable": true,
      "sha512": "sha512-guW0uK0fn5fcJJ1tJVXYd7/1h5F+pea1r7FLSOz/f8vPEqbR2ZAknuRDvTQ8PzAilDveOxNjSfr0CHfIQfFk8g==",
      "path": "system.runtime.extensions/4.3.0",
      "hashPath": "system.runtime.extensions.4.3.0.nupkg.sha512"
    },
    "System.Security.AccessControl/6.0.0": {
      "type": "package",
      "serviceable": true,
      "sha512": "sha512-AUADIc0LIEQe7MzC+I0cl0rAT8RrTAKFHl53yHjEUzNVIaUlhFY11vc2ebiVJzVBuOzun6F7FBA+8KAbGTTedQ==",
      "path": "system.security.accesscontrol/6.0.0",
      "hashPath": "system.security.accesscontrol.6.0.0.nupkg.sha512"
    },
    "System.Security.Claims/4.3.0": {
      "type": "package",
      "serviceable": true,
      "sha512": "sha512-P/+BR/2lnc4PNDHt/TPBAWHVMLMRHsyYZbU1NphW4HIWzCggz8mJbTQQ3MKljFE7LS3WagmVFuBgoLcFzYXlkA==",
      "path": "system.security.claims/4.3.0",
      "hashPath": "system.security.claims.4.3.0.nupkg.sha512"
    },
    "System.Security.Cryptography.Cng/5.0.0": {
      "type": "package",
      "serviceable": true,
      "sha512": "sha512-jIMXsKn94T9JY7PvPq/tMfqa6GAaHpElRDpmG+SuL+D3+sTw2M8VhnibKnN8Tq+4JqbPJ/f+BwtLeDMEnzAvRg==",
      "path": "system.security.cryptography.cng/5.0.0",
      "hashPath": "system.security.cryptography.cng.5.0.0.nupkg.sha512"
    },
    "System.Security.Cryptography.ProtectedData/6.0.0": {
      "type": "package",
      "serviceable": true,
      "sha512": "sha512-rp1gMNEZpvx9vP0JW0oHLxlf8oSiQgtno77Y4PLUBjSiDYoD77Y8uXHr1Ea5XG4/pIKhqAdxZ8v8OTUtqo9PeQ==",
      "path": "system.security.cryptography.protecteddata/6.0.0",
      "hashPath": "system.security.cryptography.protecteddata.6.0.0.nupkg.sha512"
    },
    "System.Security.Permissions/6.0.0": {
      "type": "package",
      "serviceable": true,
      "sha512": "sha512-T/uuc7AklkDoxmcJ7LGkyX1CcSviZuLCa4jg3PekfJ7SU0niF0IVTXwUiNVP9DSpzou2PpxJ+eNY2IfDM90ZCg==",
      "path": "system.security.permissions/6.0.0",
      "hashPath": "system.security.permissions.6.0.0.nupkg.sha512"
    },
    "System.Security.Principal/4.3.0": {
      "type": "package",
      "serviceable": true,
      "sha512": "sha512-I1tkfQlAoMM2URscUtpcRo/hX0jinXx6a/KUtEQoz3owaYwl3qwsO8cbzYVVnjxrzxjHo3nJC+62uolgeGIS9A==",
      "path": "system.security.principal/4.3.0",
      "hashPath": "system.security.principal.4.3.0.nupkg.sha512"
    },
    "System.Security.Principal.Windows/5.0.0": {
      "type": "package",
      "serviceable": true,
      "sha512": "sha512-t0MGLukB5WAVU9bO3MGzvlGnyJPgUlcwerXn1kzBRjwLKixT96XV0Uza41W49gVd8zEMFu9vQEFlv0IOrytICA==",
      "path": "system.security.principal.windows/5.0.0",
      "hashPath": "system.security.principal.windows.5.0.0.nupkg.sha512"
    },
    "System.Text.Encoding/4.3.0": {
      "type": "package",
      "serviceable": true,
      "sha512": "sha512-BiIg+KWaSDOITze6jGQynxg64naAPtqGHBwDrLaCtixsa5bKiR8dpPOHA7ge3C0JJQizJE+sfkz1wV+BAKAYZw==",
      "path": "system.text.encoding/4.3.0",
      "hashPath": "system.text.encoding.4.3.0.nupkg.sha512"
    },
    "System.Text.Encoding.CodePages/6.0.0": {
      "type": "package",
      "serviceable": true,
      "sha512": "sha512-ZFCILZuOvtKPauZ/j/swhvw68ZRi9ATCfvGbk1QfydmcXBkIWecWKn/250UH7rahZ5OoDBaiAudJtPvLwzw85A==",
      "path": "system.text.encoding.codepages/6.0.0",
      "hashPath": "system.text.encoding.codepages.6.0.0.nupkg.sha512"
    },
    "System.Text.Encodings.Web/6.0.0": {
      "type": "package",
      "serviceable": true,
      "sha512": "sha512-Vg8eB5Tawm1IFqj4TVK1czJX89rhFxJo9ELqc/Eiq0eXy13RK00eubyU6TJE6y+GQXjyV5gSfiewDUZjQgSE0w==",
      "path": "system.text.encodings.web/6.0.0",
      "hashPath": "system.text.encodings.web.6.0.0.nupkg.sha512"
    },
    "System.Text.Json/6.0.0": {
      "type": "package",
      "serviceable": true,
      "sha512": "sha512-zaJsHfESQvJ11vbXnNlkrR46IaMULk/gHxYsJphzSF+07kTjPHv+Oc14w6QEOfo3Q4hqLJgStUaYB9DBl0TmWg==",
      "path": "system.text.json/6.0.0",
      "hashPath": "system.text.json.6.0.0.nupkg.sha512"
    },
    "System.Threading.Tasks/4.3.0": {
      "type": "package",
      "serviceable": true,
      "sha512": "sha512-LbSxKEdOUhVe8BezB/9uOGGppt+nZf6e1VFyw6v3DN6lqitm0OSn2uXMOdtP0M3W4iMcqcivm2J6UgqiwwnXiA==",
      "path": "system.threading.tasks/4.3.0",
      "hashPath": "system.threading.tasks.4.3.0.nupkg.sha512"
    },
    "System.Threading.Tasks.Extensions/4.5.4": {
      "type": "package",
      "serviceable": true,
      "sha512": "sha512-zteT+G8xuGu6mS+mzDzYXbzS7rd3K6Fjb9RiZlYlJPam2/hU7JCBZBVEcywNuR+oZ1ncTvc/cq0faRr3P01OVg==",
      "path": "system.threading.tasks.extensions/4.5.4",
      "hashPath": "system.threading.tasks.extensions.4.5.4.nupkg.sha512"
    },
    "System.ValueTuple/4.5.0": {
      "type": "package",
      "serviceable": true,
      "sha512": "sha512-okurQJO6NRE/apDIP23ajJ0hpiNmJ+f0BwOlB/cSqTLQlw5upkf+5+96+iG2Jw40G1fCVCyPz/FhIABUjMR+RQ==",
      "path": "system.valuetuple/4.5.0",
      "hashPath": "system.valuetuple.4.5.0.nupkg.sha512"
    },
    "System.Windows.Extensions/6.0.0": {
      "type": "package",
      "serviceable": true,
      "sha512": "sha512-IXoJOXIqc39AIe+CIR7koBtRGMiCt/LPM3lI+PELtDIy9XdyeSrwXFdWV9dzJ2Awl0paLWUaknLxFQ5HpHZUog==",
      "path": "system.windows.extensions/6.0.0",
      "hashPath": "system.windows.extensions.6.0.0.nupkg.sha512"
    },
    "Tavis.UriTemplates/2.0.0": {
      "type": "package",
      "serviceable": true,
      "sha512": "sha512-GbetWNcPIaXvWtanHlBqlEp2KflFrsJf8RBNXmI8Yyeft9CSGxNrcsoKWEiEzyrn7gGVQ25ZC6ep9UfWPR0Otw==",
      "path": "tavis.uritemplates/2.0.0",
      "hashPath": "tavis.uritemplates.2.0.0.nupkg.sha512"
    }
  }
}